"apple",1,"126415614616154112","Tue Oct 18 21:53:25 +0000 2011","Now all @Apple has to do is get swype on the iphone and it will be crack. Iphone that is"
"apple",1,"126404574230740992","Tue Oct 18 21:09:33 +0000 2011","@Apple will be adding more carrier support to the iPhone 4S (just announced)"
"apple",1,"126402758403305474","Tue Oct 18 21:02:20 +0000 2011","Hilarious @youtube video - guy does a duet with @apple 's Siri. Pretty much sums up the love affair! http://t.co/8ExbnQjY"
"apple",1,"126397179614068736","Tue Oct 18 20:40:10 +0000 2011","@RIM you made it too easy for me to switch to @Apple iPhone. See ya!"
"apple",1,"126395626979196928","Tue Oct 18 20:34:00 +0000 2011","I just realized that the reason I got into twitter was ios5 thanks @apple"
"apple",1,"126394830791254016","Tue Oct 18 20:30:50 +0000 2011","I'm a current @Blackberry user, little bit disappointed with it! Should I move to @Android or @Apple @iphone"
"apple",1,"126379685453119488","Tue Oct 18 19:30:39 +0000 2011","The 16 strangest things Siri has said so far. I am SOOO glad that @Apple gave Siri a sense of humor! http://t.co/TWAeUDBp via @HappyPlace"
"apple",1,"126377656416612353","Tue Oct 18 19:22:35 +0000 2011","Great up close & personal event @Apple tonight in Regent St store!"
"apple",1,"126373779483004928","Tue Oct 18 19:07:11 +0000 2011","From which companies do you experience the best customer service aside from @zappos and @apple?"
"apple",1,"126366353757179904","Tue Oct 18 18:37:41 +0000 2011","Just apply for a job at @Apple, hope they call me lol"
"apple",1,"126366123368267776","Tue Oct 18 18:36:46 +0000 2011","RT @JamaicanIdler: Lmao I think @apple is onto something magical! I am DYING!!! haha. Siri suggested where to find whores and where to h ..."
"apple",1,"126358340220616704","Tue Oct 18 18:05:50 +0000 2011","Just registered as an @apple developer... Here's hoping I can actually do it... Any help, greatly appreciated!"
"apple",1,"126019393460244481","Mon Oct 17 19:38:59 +0000 2011","I love @apple service . My case has cracked 3x and I go in and they hand me a case and I walk out"
"apple",1,"125978568726560768","Mon Oct 17 16:56:46 +0000 2011","4 millions in a weekend, 16 #iPhone4S per second. This is madness?! no, this is @Apple !!!"
"apple",1,"125974505385500672","Mon Oct 17 16:40:37 +0000 2011",".@apple you got me. I'm now invested. MacBook Pro next year. Time to get on selling more of my #android gear"
"apple",1,"125960325437722624","Mon Oct 17 15:44:16 +0000 2011","@iancollinsuk @apple I like what you did there...!"
"apple",1,"125959059957485569","Mon Oct 17 15:39:14 +0000 2011","I just sent my grandma a post card using my #CardsApp thanks @Apple"
"apple",1,"125954443643588608","Mon Oct 17 15:20:54 +0000 2011","Sorry @BlackBerry, I'm moving to @Apple."
"apple",1,"125902301931126785","Mon Oct 17 11:53:42 +0000 2011","RT @MN2NOVA: Love ios5 Easter eggs. Pull down from middle top to bottom and see what pulls down. Awesome little feature! #ios5 @apple"
"apple",1,"125901202591461376","Mon Oct 17 11:49:20 +0000 2011","Love ios5 Easter eggs. Pull down from middle top to bottom and see what pulls down. Awesome little feature! #ios5 @apple"
"apple",1,"125900497327636480","Mon Oct 17 11:46:32 +0000 2011","Love #ios5 Easter eggs. Pull down from middle top to bottom and see what pulls down. Awesome little feature! @apple #lovemyiphone"
"apple",1,"125898611572740097","Mon Oct 17 11:39:02 +0000 2011","Updated my iOS and started using cloud services. Pretty bad ass @apple my #iPhone 3GS still the champ."
"apple",0,"126327808803880960","Tue Oct 18 16:04:31 +0000 2011","@apple, No, I won't wait until thursday for an available appointment just so a 'genius' can tell me I'm shit out of luck. #now"
"apple",0,"126325125749542913","Tue Oct 18 15:53:51 +0000 2011","WTF?!?! @apple the new iOS 5 doesn't allow you NOT to get push notifications from newstand? and SIRI just keeps yapping FUCK!"
"apple",0,"126324573384871936","Tue Oct 18 15:51:39 +0000 2011","@Apple, on the #iPad with #iOS5, why has the Messages Icon been included when it can't be used?"
"apple",0,"126324389741473792","Tue Oct 18 15:50:56 +0000 2011","@Steelo254 yea! I pre-order through @apple and they sorry too just like #AT&T"
"apple",0,"126324077513293824","Tue Oct 18 15:49:41 +0000 2011","Interesting... @apple now requires you to have a reservation ?         #apple #iphone #4S    :  http://t.co/zZK4fTii"
"apple",0,"125958368773943296","Mon Oct 17 15:36:29 +0000 2011","Looks like @Apple did not appropriately project the resources needed for Siri. Not very reliable"
"apple",0,"125956505768960000","Mon Oct 17 15:29:05 +0000 2011","Spoke to an @Apple rep on phone & could hear her tv blaring in the bg.  She said, ""I can't actually help u, just direct u back to the web"""
"apple",0,"125956403574747137","Mon Oct 17 15:28:41 +0000 2011","What's wrong with Siri today @apple"
"apple",0,"125956319344721920","Mon Oct 17 15:28:21 +0000 2011","@Apple Siri is down!"
"apple",0,"125954651152592896","Mon Oct 17 15:21:43 +0000 2011","I'm suspecting @Apple timed the health-decline of my iPhone 4 perfectly with the iPhone 4s release... My battery is seriously ailing."
"apple",0,"125953600861126656","Mon Oct 17 15:17:33 +0000 2011","on hold for another half hour. phone is ringing but no one is picking up.@apple you stink."
"apple",0,"125309975881977857","Sat Oct 15 20:40:01 +0000 2011","need @apple help!! installing new ios on #iphone4 and am stuck on the Find My iPhone screen :( i keep clicking next but it doesn't work"
"apple",0,"125309448108519424","Sat Oct 15 20:37:55 +0000 2011","Bummer that @Apple #iCloud syncs on Windows only w/ Outlook (not Thunderbird) & IE (not Firefox, Chrome). #sadmac"
"apple",0,"125307394640199680","Sat Oct 15 20:29:46 +0000 2011","Disappointing visual merchandising, @apple. Simple, but lacks elegance. And sequence doesn't even tell us about #Siri. http://t.co/XV2q3gfi"
"apple",0,"125305396842856448","Sat Oct 15 20:21:49 +0000 2011","has been on terminal hold with @apple support!  She must not be the only person having trouble with the new iphone and synching!"
"apple",0,"125303217214062592","Sat Oct 15 20:13:09 +0000 2011","@apple thanks apple for ios 5 and losing all my contacts!"
"apple",0,"125302079752384512","Sat Oct 15 20:08:38 +0000 2011","@apple give me my apps back!!!"
"apple",0,"125301860256063488","Sat Oct 15 20:07:46 +0000 2011","@Apple #iOS5 NONSTOP DROPPED CALLS&MUTE BUTTON RANDOMLY ACTIVATING&PERSON CANT HEAR ME, PULL PHONE FROM EAR TO BE ON A ""MOBILE ME"" SCREEN"
"apple",0,"125301393560047616","Sat Oct 15 20:05:54 +0000 2011","RT @tomcolontonio: Didn't it occur to @apple #apple that ppl share iTunes accounts amongst family's ????? Wtf!!!!"
"apple",0,"125301265700892672","Sat Oct 15 20:05:24 +0000 2011","@tomcolontonio @apple #EPICFAIL"
"apple",0,"125277260872822786","Sat Oct 15 18:30:01 +0000 2011","90 minutes after being at 100% my iPhone 4 (post #ios5 upgrade) has lost 40% of its charge and the @apple store folks are out of ideas."
"apple",0,"125276004817190914","Sat Oct 15 18:25:01 +0000 2011","So ""cutting the cord"" makes podcasts even harder to manage?!? No subscriptions! WTH, @Apple? http://t.co/LD2i871x #iOS5 (via @carrypad)"
"apple",0,"125269239207706624","Sat Oct 15 17:58:08 +0000 2011","In less than an hour my post- #iOS5 iPhone has gone from 100% to 73% battery charge and the @apple store folks have no solution for me :("
"apple",0,"125269161327865856","Sat Oct 15 17:57:50 +0000 2011","Well @apple seems 2b screwing #iphone 4s resellars. They still dont have 4s. Yet were promised. Similar 2 Ma Bell's monopolistic prctices?"
"apple",0,"125267178336419840","Sat Oct 15 17:49:57 +0000 2011","Also @EricGreenspan, don't forget @Apple stop closing the app store after each bloody purchase..."
"apple",0,"125265721281351680","Sat Oct 15 17:44:09 +0000 2011","@apple cu"
"apple",0,"125261285083447296","Sat Oct 15 17:26:32 +0000 2011","*sigh* @apple store seems stumped what to do about my catastrophically bad battery life after upgrading to #ios5"
"apple",0,"125247130762883072","Sat Oct 15 16:30:17 +0000 2011","Hmmmm a lot of #Siri features don't work in Canada. Location and directions? Seriously @apple come on!"
"apple",0,"125245780192792576","Sat Oct 15 16:24:55 +0000 2011","@apple, #siri can't connect to the network -- it's LESS useful that VoiceControl now... :("
"apple",0,"125245104859529216","Sat Oct 15 16:22:14 +0000 2011","@apple took my Siri and made it exclusive to iPhone 4S  #SoRude"
"apple",0,"125236708403970048","Sat Oct 15 15:48:52 +0000 2011","total time on the phone with @apple: 1 hour 27 minutes. let's see how this goes."
"apple",0,"125236166151774208","Sat Oct 15 15:46:43 +0000 2011","Waited in line for nothing, fucking genius @Apple called an app for ""John"" not ""jean"" stop fucking up my name im not a French boy. #PCam ..."
"apple",0,"125232266849947648","Sat Oct 15 15:31:13 +0000 2011","Dear @apple, One day you're going to release a version of iTunes that doesn't freeze more often than it works. One day."
"apple",0,"125230743990444032","Sat Oct 15 15:25:10 +0000 2011","It's been 24hrs since I reported @ups theft of my iPhone and @apple has done nothing. No return call as promised. Nothing."
"apple",0,"125230107580317696","Sat Oct 15 15:22:38 +0000 2011","This does not bode well. After charging all night, my @Apple iPhone 4S has 25% battery after only 3hr off charger with no calls & light use"
"apple",0,"125227837438435328","Sat Oct 15 15:13:37 +0000 2011","Houston we have a problem!! My iPad has been restoring for 12+ hours after installing @apple IOS5. This can't be right...."
"apple",0,"125224588253741056","Sat Oct 15 15:00:43 +0000 2011","#Siri went down for a little while last night. Come on @apple! Get your shit together on this launch!"
"apple",0,"125223685194915840","Sat Oct 15 14:57:07 +0000 2011","@ford should have teamed up with @Apple instead of @microsoft to make this SYNC system in my new focus. Car is sweet SYNC is #EpicFail"
"apple",0,"125202037293064192","Sat Oct 15 13:31:06 +0000 2011","RT @gdcurry: Really @Apple?  What have you done to my iTunes now?  I can't click on Music, Movies, TV Shows, or any playlists. I get a l ..."
"apple",0,"125129328446017536","Sat Oct 15 08:42:11 +0000 2011","DAMN YOU !!! @apple"
"google",1,"126534770095169536","Wed Oct 19 05:46:54 +0000 2011","Took me months to decide, but tonight I have chosen #google over Amazon S3 for image storage solution."
"google",1,"126534201880219648","Wed Oct 19 05:44:39 +0000 2011","RT @spacecanard Today's the Day. ICS &lt;3 #android #google #samsung"
"google",1,"126534020367519744","Wed Oct 19 05:43:56 +0000 2011","The new Nexus looks good! UI feel a bit confusing but I guess Android users are ok with that! Now, try it :) #Google #android #nexusprime"
"google",1,"126533948925952000","Wed Oct 19 05:43:38 +0000 2011","Very nice trivia game by #Google. Helps you use their search better http://t.co/ikN087ZE"
"google",1,"126533885109600256","Wed Oct 19 05:43:23 +0000 2011","Very nice trivia game by #Google. Helps you use their search better http://t.co/c5Tu3dZK #fb"
"google",1,"126533562781544448","Wed Oct 19 05:42:06 +0000 2011","Cant build a website. Get a #Google website #Free ! http://t.co/7qUy4uOU"
"google",1,"126533349727666176","Wed Oct 19 05:41:16 +0000 2011","#Android ICS is looking pretty good. Not quite sure if its worth the 4.0 numbering leap. #google"
"google",1,"126533268119109632","Wed Oct 19 05:40:56 +0000 2011","@Tita_Ramos #Google it =)"
"google",1,"126532897715929088","Wed Oct 19 05:39:28 +0000 2011","Me too RT @MohamedG: Exciting day, It's Ice cream Sandwich day ;) #Google #Android"
"google",1,"126531552367751169","Wed Oct 19 05:34:07 +0000 2011","WOW the new #Google #Nexus is just beautiful. totally gonna boost google's market share in the smart phone market."
"google",1,"126531180907601920","Wed Oct 19 05:32:39 +0000 2011","hahaha integrated data usage manager... in sucha brilliant way, sleek design, superb and I'm only watching videos LOL #Google"
"google",1,"126530945976238080","Wed Oct 19 05:31:43 +0000 2011","I fancy an Ice Cream Sandwich #google #android. Wonder it will works on my HTC Desire?"
"google",1,"126530924576907264","Wed Oct 19 05:31:37 +0000 2011","Google Ice Cream Sandwich - sounds yummy!  What do you think? http://t.co/gMsgXcq8 #google #Android #ice cream sandwich"
"google",1,"126530807891374082","Wed Oct 19 05:31:10 +0000 2011","#Google Me!!!!!!!!"
"google",1,"126530189579649024","Wed Oct 19 05:28:42 +0000 2011","Exciting day, It's Ice cream Sandwich day ;) #Google #Android"
"google",1,"126530027939569665","Wed Oct 19 05:28:04 +0000 2011","Android 4.0 Ice Cream Sandwich is Here with a Google Nexus in new Avtar!   http://t.co/mSWX6Eo6   #android #google #nexus #BigMAMA"
"google",1,"126529770778411008","Wed Oct 19 05:27:02 +0000 2011","@Bla1ze I was referring to #Google & #Icecreamsandwich. It looks amazing. What imo android was missing. I ... http://t.co/rE4nLZgI"
"google",1,"126528982807089152","Wed Oct 19 05:23:54 +0000 2011","http://t.co/QV4m1Un9 Forget the phone.. Nice UI. Liking the Scroll Feature #android #google #nexus"
"google",1,"126528978239496194","Wed Oct 19 05:23:53 +0000 2011","Simply Amazing! http://t.co/9qmG3irA #Google #Samsung #Galaxy #Nexus #Prime #Android4 #IceCreamSandwich"
"google",1,"126528804192653312","Wed Oct 19 05:23:12 +0000 2011","#Google has finally unveiled the much awaited #Android OS Ice Cream Sandwich & it sure looks good! http://t.co/sNL38EM1"
"google",1,"126528264117293056","Wed Oct 19 05:21:03 +0000 2011","#google Finally!! All searches for logged in users will be on https! http://t.co/RaUeRrtF"
"google",1,"126526219587039233","Wed Oct 19 05:12:56 +0000 2011","#RIM should really take an in debt look at #Google's strategy... They released the #NDK for #Icecreamsandwich 3 HOURS after release. #ics"
"google",1,"126525469897146368","Wed Oct 19 05:09:57 +0000 2011","RT @vattam: Man! I've fallen in love with Galaxy Nexus! #google #samsung #galaxynexus #android"
"google",1,"126525368860540928","Wed Oct 19 05:09:33 +0000 2011","When in doubt... #Google it!!!"
"google",1,"126525172969766912","Wed Oct 19 05:08:46 +0000 2011","[GReader Share] Five Reasons Why Google is Winning the War in Photosharing  http://t.co/coQCLb9R - #photography #fotografia #google+"
"google",1,"126524301259194368","Wed Oct 19 05:05:18 +0000 2011","RT @Assim99: Dear #Google, I want the Galaxy Nexus NOW. Please send it to me by email or something - I know you have the technology"
"google",1,"126523731710443521","Wed Oct 19 05:03:02 +0000 2011","RT @shagorikah: Telegraph reports that the biggest threat to #facebook is its power users have shifted to #twitter or #google+ http://t. ..."
"google",1,"126523530903953408","Wed Oct 19 05:02:15 +0000 2011","Sorry #Apple #Google and #Samsung just made you look bad. #Android is king"
"google",1,"126523525598162944","Wed Oct 19 05:02:13 +0000 2011","Telegraph reports that the biggest threat to #facebook is its power users have shifted to #twitter or #google+ http://t.co/JHdTYKCV"
"google",1,"126522990585315328","Wed Oct 19 05:00:06 +0000 2011","#Facebook power users 'have gone to #Google+ and #Twitter' - Telegraph http://t.co/vwCiOv1f Who are they? #socialmedia"
"google",1,"126522810821644288","Wed Oct 19 04:59:23 +0000 2011","Not impressed much with the new Android update. But good signs: a readable font, emphasis on design, and less nerdiness. #google"
"google",1,"126522714713370624","Wed Oct 19 04:59:00 +0000 2011","Video: #Google wallet, see the wow effect http://t.co/mcW78VtG"
"google",1,"126522621251682304","Wed Oct 19 04:58:38 +0000 2011","When I'm about to tweet something and I cant remember how to spell I go straight to #Google"
"google",1,"126522262768726016","Wed Oct 19 04:57:12 +0000 2011","Dear #Google, I want the Galaxy Nexus NOW. Please send it to me by email or something - I know you have the technology"
"google",1,"126521286053724160","Wed Oct 19 04:53:19 +0000 2011","#GOOGLE #ANDROID 4.0 out ;-) Available with #SAMSUNG nexus!"
"google",1,"126520518609350656","Wed Oct 19 04:50:16 +0000 2011","#Google is seriously my muthafuckin' best friend."
"google",1,"126520029410885632","Wed Oct 19 04:48:20 +0000 2011","Maybe not the most efficient way to browse, but fun: #Google releases an Infinite Digital Bookcase http://t.co/X1qzeX7f by @MeghanKel"
"google",1,"126519483752914944","Wed Oct 19 04:46:10 +0000 2011","@jowyang it's difficult to pass up #google+ considering the social seo benefits of google+ vs facebook"
"google",1,"126519329025040384","Wed Oct 19 04:45:33 +0000 2011","Ice Cream Sandwich to stop carriers bullying smartphone users #google #android http://t.co/BZNy74Nn"
"google",1,"126519123772588032","Wed Oct 19 04:44:44 +0000 2011","I agree with @wellis68 that the ""Hangouts"" on #Google+ are friggin' awesome!”"
"google",1,"126519017405030400","Wed Oct 19 04:44:19 +0000 2011","http://t.co/Pl4ZeEvH - Ice Cream Sandwich to stop carriers bullying smartphone users #google #android http://t.co/BgKiMGJF"
"google",1,"126518882939838464","Wed Oct 19 04:43:46 +0000 2011","#google #galaxynexus #icecream great"
"google",1,"126516914678808578","Wed Oct 19 04:35:57 +0000 2011","The next #Google #Nexus phone is here!!. http://t.co/edSwoXoC"
"google",1,"126516779886456832","Wed Oct 19 04:35:25 +0000 2011","Google Earth Helps Locate Salmonella Hotspots http://t.co/mcz9RSDf #google"
"google",1,"126516304336257025","Wed Oct 19 04:33:32 +0000 2011","#ThingsWeAllHate that person that acts like they know every fucking thing bitch you not #Google"
"google",1,"126515760855134208","Wed Oct 19 04:31:22 +0000 2011","#samsung galaxy nexus = orbital laser. #apple iphone 4s = wooden stick #google"
"google",1,"126514474378203136","Wed Oct 19 04:26:15 +0000 2011","/want http://t.co/srbm3V0K #Google #Nexus #Samsung #Galaxy"
"google",1,"126513620686352384","Wed Oct 19 04:22:52 +0000 2011","Ice Cream Sandwich u r really delicious Can ditch iPhone for u that's for sure. #Google launches #Android4 aka #IceCreamSandwich :)"
"google",1,"126513526385819648","Wed Oct 19 04:22:29 +0000 2011","#google+ (: lovin it"
"google",1,"126513425043030016","Wed Oct 19 04:22:05 +0000 2011","""Samsung and Google have closely collaborated to push the mobile experience forward. We are pleased to ... http://t.co/ecT8fYIA #Google+"
"google",1,"126512728297844736","Wed Oct 19 04:19:19 +0000 2011","RT @RoycinD: FINALLY ! Power + Volume = Screenshot. No more rooting required! #Google #ICS #galaxynexus"
"google",1,"126512631937904640","Wed Oct 19 04:18:56 +0000 2011","I want the new #google #galaxynexus. Android 4.0 is going to be the fucks"
"google",1,"126512208451600384","Wed Oct 19 04:17:15 +0000 2011","#Google #Nexus press conference http://t.co/2WV01o5v #slick"
"google",1,"126511545160171520","Wed Oct 19 04:14:37 +0000 2011","S/O to #google for getting me through high school and college....you are appreciated"
"google",1,"126511426926944256","Wed Oct 19 04:14:09 +0000 2011","iScream u scream v all scream #android #IceCreamSandwich. A job well done by #google and a major game changer in the #mobile #OS space"
"google",1,"126511000907288576","Wed Oct 19 04:12:27 +0000 2011","@immad_immad #google, always thinking ahead"
"google",1,"126510977335300096","Wed Oct 19 04:12:22 +0000 2011","@VentureBeat I like the #google virtual bookcase thank you for sharing"
"google",1,"126510551789604864","Wed Oct 19 04:10:40 +0000 2011","#Google's #IceCreamSandwich was revealed. I'm getting an #Android whenever I get a new phone, but I'm keeping my #iPhone for now."
"google",1,"126509929619132417","Wed Oct 19 04:08:12 +0000 2011","#Android #Google Ice Cream Sandwich Feature Closer Look - Roboto Type Face Is ""A Pleasure"" To Read http://t.co/DJsp2G5B #DhilipSiva"
"google",1,"126509528287166464","Wed Oct 19 04:06:36 +0000 2011","Fantastic work from #Samsung and #Google on the #GalaxyNexus superphone and the new #Android #ICS. Very impressive."
"google",1,"126508393203642368","Wed Oct 19 04:02:06 +0000 2011","... I think I should work for #MelaleucaTheWellnessCompany ... Probably the best company to work for .. oh and #Google"
"google",1,"126507456019968000","Wed Oct 19 03:58:22 +0000 2011","i love #google"
"google",1,"126507105023819776","Wed Oct 19 03:56:58 +0000 2011","#Google is the best invention ever!!"
"google",1,"126506850781888512","Wed Oct 19 03:55:58 +0000 2011","Can't wait for Ice Cream Sandwich. http://t.co/RtDzjq2U #android #google"
"google",1,"126506410195431424","Wed Oct 19 03:54:13 +0000 2011","i need a hookup, stop teasing me #google http://t.co/07YR58wL i want the new #nexus"
"google",1,"126506064387637249","Wed Oct 19 03:52:50 +0000 2011","well.....#google's #icecreamsandwich and new accompanying phone are, as usual, neat, but nothing ground-breaking"
"google",1,"126505384428052481","Wed Oct 19 03:50:08 +0000 2011","#Android #Google Device Frame Generator Updated For Galaxy Nexus - Your Screenshots Just Got Prettier http://t.co/9bWt2W6z #DhilipSiva"
"google",1,"126505187752943616","Wed Oct 19 03:49:21 +0000 2011","Mmm... #SmarterPhone RT @Android: Introducing Ice Cream Sandwich, the delicious new version of Android: http://t.co/AXl2K1Gs #ICS #google"
"google",1,"126505144878772224","Wed Oct 19 03:49:11 +0000 2011","So so excited for all of the new Android features! Awesomeness :) #Android #ICS #Google #GalaxyNexus"
"google",1,"126504782465732608","Wed Oct 19 03:47:45 +0000 2011","#IceCreamSandwich went way and beyond what I expected. Can't wait to get it on my Nexus to play with! #Google"
"google",1,"126504452680187905","Wed Oct 19 03:46:26 +0000 2011","Check this video out -- Introducing Galaxy Nexus. Simple, beautiful, beyond smart http://t.co/fiTI6ZIA 透過 @youtube #android #nexus #google"
"google",1,"126504346639802368","Wed Oct 19 03:46:01 +0000 2011","Cream on the inside, clean on the outside. Ice Cream phone job. #Google"
"google",1,"126504216004005888","Wed Oct 19 03:45:30 +0000 2011","#Google+  great for small businesses? I think so. The platform has some really beneficial features. Thoughts? http://t.co/FytcyEG2"
"google",1,"126504013939216384","Wed Oct 19 03:44:41 +0000 2011","RT @Mr_Lister: Loves the new presentations tool for Google Docs - particularly themes and adding video via URL #google #sd33 #edchat #ed ..."
"google",1,"126503946092158976","Wed Oct 19 03:44:25 +0000 2011","brilliant WebGL Bookcase #google http://t.co/CR3A6k9U"
"google",1,"126503805369069568","Wed Oct 19 03:43:52 +0000 2011","#Google's like my wife - searches things for me and completes my sentences."
"google",1,"126503790412181504","Wed Oct 19 03:43:48 +0000 2011","#Android 4.0 Ice Cream: Introducing Galaxy Nexus. Simple, beautiful, beyond smart http://t.co/vUWgyx3N #Google"
"google",1,"126503029548654593","Wed Oct 19 03:40:47 +0000 2011","http://t.co/Izh7KaiU #google #nexus #prime &lt;3 #android"
"google",1,"126502415322193920","Wed Oct 19 03:38:20 +0000 2011","Interesting bookcase..RT @VentureBeat: #Google releases an Infinite Digital Bookcase http://t.co/urxJixCe by @MeghanKel"
"google",1,"126502014560649216","Wed Oct 19 03:36:45 +0000 2011","#google is my bff rite about now!"
"google",1,"126501732443361280","Wed Oct 19 03:35:37 +0000 2011","have to finish faster the only way is to google it!!!! #google :D"
"google",1,"126501468902658048","Wed Oct 19 03:34:35 +0000 2011","Good to see #Google finally turning their focus on user experience. http://t.co/AYhOKgo8 #IceCreamSandwich #Android"
"google",1,"126500614552289282","Wed Oct 19 03:31:11 +0000 2011","ICS looks awesome, please let me have it on my phone!  #android #google #motorola"
"google",1,"126499965869625345","Wed Oct 19 03:28:36 +0000 2011","Iphone 4s almost had me ... ALMOST !! Ice Cream Sandwich FTW !! http://t.co/p32Ehduq #android #google"
"google",1,"126499428965158912","Wed Oct 19 03:26:28 +0000 2011","There you go - according to http://t.co/4Y8aS4zz #Google+ is builtin to the OS/Nexus line? Smart move :)"
"google",1,"126499145014980608","Wed Oct 19 03:25:21 +0000 2011","Oh yes, and now - The Android Beam! Alright, I made the right decision to be on Team #Google, Team #Android!"
"google",1,"126499143282737152","Wed Oct 19 03:25:20 +0000 2011","I just add my profile on the #Google+ WebGL Globe project. Add yours ! http://t.co/UWeYalKb via @AddThis"
"google",1,"126498734409396224","Wed Oct 19 03:23:43 +0000 2011","Thanks Android for admitting you're ugly. New font is a good start! #ics #google"
"google",1,"126498608815149056","Wed Oct 19 03:23:13 +0000 2011","Ice Cream Sandwich's Face Unlock really works! http://t.co/2SjN2BzZ #icecreamsandwich #google #galaxynexus"
"google",1,"126498587499696128","Wed Oct 19 03:23:08 +0000 2011","I'm so ready for Ice Cream Sandwich! #ICS #Nexus #Google #Android #SiriWho? http://t.co/Cjonncvk @GetGlue #Android"
"google",1,"126497976314109952","Wed Oct 19 03:20:42 +0000 2011","Mmmm Ice Cream Sandwich #Android #Google"
"google",1,"126497860752646146","Wed Oct 19 03:20:14 +0000 2011","Just seen a taste of #Google's ice cream sandwich, now I want a bite"
"google",1,"126497655785402368","Wed Oct 19 03:19:26 +0000 2011","Probably the best #IceCreamSandwich (yet)! #Samsung and #Google's event live blog by @engadget! Why haven't I switched to #Android again?"
"google",1,"126496772586610688","Wed Oct 19 03:15:55 +0000 2011","RT @YashasJoshi: #android 4.0!!  Ice Cream Sandwich will now make all other smartphone operating systems look outdated.  #Androidbeam Wo ..."
"google",1,"126496739531304960","Wed Oct 19 03:15:47 +0000 2011","Instant photo sharing and the people app are what's best in Ice Cream Sandwich, IMO. #google #ics"
"google",1,"126496342901133313","Wed Oct 19 03:14:12 +0000 2011","The new android #Nexus phone makes the #iPhone look like a cheap toy at dollar store! #tcot #android #google #RealEstate @Burkepatch"
"google",1,"126496262668292096","Wed Oct 19 03:13:53 +0000 2011","Sweet Ice Cream Sandwich RT @Pocketlint Google Android 4.0 Ice Cream Sandwich officially detailed #google #ics http://t.co/iUY0DF5S"
"google",1,"126496155856142336","Wed Oct 19 03:13:28 +0000 2011","""@SamsungMobileCA: Raise your hand if you now want an #Android4 #IceCreamSandwich powered #GALAXYNexus phone! #Google #Samsung""-I do!"
"google",1,"126496005809127424","Wed Oct 19 03:12:52 +0000 2011","Siri, which #Android device should I replace my #iPhone with? #Apple vs. #Google"
"google",1,"126495843116265475","Wed Oct 19 03:12:13 +0000 2011","The new Google Nexus page is live! - http://t.co/zrqoeWxI #nexus #google #android #icecreamsandwich"
"google",1,"126495283176685569","Wed Oct 19 03:10:00 +0000 2011","Are you using #Google+ and #Linkedin yet? These are essential tools to get your company and/or you on the FIRST page of Google. Contact..."
"google",1,"126494976396898305","Wed Oct 19 03:08:47 +0000 2011","RT @SebasCoulombe: Thanks to Samsung and Google, I'm now craving for some Ice Cream Sandwich !  #IceCreamSandwich #Google #Samsung"
"google",1,"126494883367235585","Wed Oct 19 03:08:25 +0000 2011","Introducing Galaxy Nexus. Simple, beautiful, beyond smart http://t.co/qaMj3MeR #android #ICS #google #samsung"
"google",1,"126494838689513473","Wed Oct 19 03:08:14 +0000 2011","So glad #Google adopted a design philosophy for #Android 4.0 a.k.a It shows soooo much! This is the polish I've been waiting for!"
"google",1,"126494645281755136","Wed Oct 19 03:07:28 +0000 2011","Thoughts on Android 4.0 #ICS? Excited to play with the new features. #android #google"
"google",1,"126494573966016512","Wed Oct 19 03:07:11 +0000 2011","Register now for your Galaxy Nexus :) http://t.co/37WkIoXC #Android #Google"
"google",1,"126494442290020352","Wed Oct 19 03:06:39 +0000 2011","Wow! RT @dalmaer: WebGL infinite bookcase UI http://t.co/aijYsfHO #google"
"google",1,"126494344566943744","Wed Oct 19 03:06:16 +0000 2011","#Google + #Samsung = Perfect #Icecream sandwich #GalaxyNexus"
"google",1,"126494339248562176","Wed Oct 19 03:06:15 +0000 2011","Thanks to Samsung and Google, I'm now craving for some Ice Cream Sandwich !  #IceCreamSandwich #Google #Samsung"
"google",1,"126494280318582784","Wed Oct 19 03:06:01 +0000 2011","Loved the Google release of Android OS 4.0 Ice Cream Sandwich! #Samsung #Android #Google #IceCreamSandwich #amazing!"
"google",1,"126494221879357440","Wed Oct 19 03:05:47 +0000 2011","Google ICS looks awesome, can't wait til it gets ported over to my evo, face unlock?! ... #android #google"
"google",1,"126494100252925954","Wed Oct 19 03:05:18 +0000 2011","#ICS is Sick, good work #google team"
"google",1,"126494070385283072","Wed Oct 19 03:05:11 +0000 2011","I gotta say, Google's got some pretty catchy advertisements for Android and Chrome. #google #android"
"google",1,"126493889761787904","Wed Oct 19 03:04:28 +0000 2011","@jessecablek I want it too. Now just wondering who will be carrying it in November. Or direct purchase from #google / #samsung"
"google",1,"126493850914131968","Wed Oct 19 03:04:18 +0000 2011","#Google's #Nexus really i wanna it now #Awesome"
"google",1,"126493722916560896","Wed Oct 19 03:03:48 +0000 2011","Well the event is now over, time to change my pants #Google #Android #Samsung #Jizz"
"google",1,"126493648757071873","Wed Oct 19 03:03:30 +0000 2011","I'm an iOs user but the #ICS is awesome, great job #google"
"google",1,"126493639605092352","Wed Oct 19 03:03:28 +0000 2011","Oh yeah I'm in I want one now #Google really did a great job #ICS"
"google",1,"126493624270725120","Wed Oct 19 03:03:24 +0000 2011","RT @ThatTechGuy92: LITERALLY HAD MY MIND BLOWN AWAY JUST NOW!!!!! #Google #Samsung"
"google",1,"126493538945994752","Wed Oct 19 03:03:04 +0000 2011","@BrandonMiniman @Jaime_Rivera I'm an iOs user but the #ICS is awesome, great job #google"
"google",1,"126493495933403136","Wed Oct 19 03:02:54 +0000 2011","#google + #motorola + #verizon = perfect combination! &lt;3"
"google",1,"126493472931844096","Wed Oct 19 03:02:48 +0000 2011","Loved the introduction of the Google Galaxy Nexus & Ice Cream Sandwich. Really looking forward to my new phone #android #ics #nexus #google"
"google",1,"126493405760069632","Wed Oct 19 03:02:32 +0000 2011","GO, GO, GO Ice Cream Sandwich developers! #Android SDK r14 is LIVE @ http://t.co/OeUrmtLX! #Google"
"google",1,"126493371790397440","Wed Oct 19 03:02:24 +0000 2011","#android 4.0!!  Ice Cream Sandwich will now make all other smartphone operating systems look outdated.  #Androidbeam Wowww..  #google"
"google",1,"126493365775777792","Wed Oct 19 03:02:23 +0000 2011","Galaxy Nexus = #Google #Android #Samsung - the dream team! :) http://t.co/R5juJSBr"
"google",1,"126493265661919232","Wed Oct 19 03:01:59 +0000 2011","yumyumyum...I want Ice Cream Sandwich... #google #android"
"google",1,"126493192110612480","Wed Oct 19 03:01:41 +0000 2011","Soon. Getting ready for the party. #google #android #icecreamsandwich http://t.co/eZjCzLt6"
"google",1,"126493141271449600","Wed Oct 19 03:01:29 +0000 2011","RT @SamsungMobileCA: Raise your hand if you now want an #Android4 #IceCreamSandwich powered #GALAXYNexus phone! #Google #Samsung"
"google",1,"126493101807239168","Wed Oct 19 03:01:20 +0000 2011","All this talk about about how good #icecreamsandwich looks is making me hungry #google #omnomnomnom"
"google",1,"126493034014720000","Wed Oct 19 03:01:04 +0000 2011","iPhone users find the nearest trash for your device it's the correct place ! #Android #Apple #Google #iPhone"
"google",1,"126492983968268289","Wed Oct 19 03:00:52 +0000 2011","#Google / #Samsung #Galaxy #Nexus #ICS press release is now done, I'll go back to my regular tweeting intervals now :) I WANT IT!"
"google",1,"126492981460082688","Wed Oct 19 03:00:51 +0000 2011","Raise your hand if you now want an #Android4 #IceCreamSandwich powered #GALAXYNexus phone! #Google #Samsung"
"google",1,"126492970793971712","Wed Oct 19 03:00:49 +0000 2011","Ready for some Ice Cream Sandwich! #google #android"
"google",1,"126492656124702721","Wed Oct 19 02:59:33 +0000 2011","What I think about #AndroidIceCreamSandwich ? Thats the most delicious piece of sandwich ever. Get me it real fast #GOOGLE !"
"google",1,"126492595500236800","Wed Oct 19 02:59:19 +0000 2011","Pretty big deal from #Samsung and #Google def can't wait to get my hands on the #GalaxyNexus and #ICS"
"google",1,"126492495394775043","Wed Oct 19 02:58:55 +0000 2011","I cannot wait for a new #ICS phone!!! #Google #android"
"google",1,"126492415749128192","Wed Oct 19 02:58:36 +0000 2011","RT @eboyee: Dostupan SDK - WOW R.E.S.P.E.C.T. #Google #IceCreamSandwich"
"google",1,"126492266016673794","Wed Oct 19 02:58:00 +0000 2011","Dostupan SDK - WOW R.E.S.P.E.C.T. #Google #IceCreamSandwich"
"google",1,"126492259993657345","Wed Oct 19 02:57:59 +0000 2011","OMG the #Android 4.0 SDK is available NOW @ http://t.co/OeUrmtLX!! #Google"
"google",1,"126492242373386240","Wed Oct 19 02:57:55 +0000 2011","The new #Samsungnexus and 4.0 OS make the #iPhone4s look like an old bag phone. Nice job #Google and #Samsung."
"google",1,"126492101549621249","Wed Oct 19 02:57:21 +0000 2011","Calling all #marketing executives in #houston - sign up for #google #training - http://t.co/vo542MrZ - I can't wait to be there for the week"
"google",1,"126492040954527744","Wed Oct 19 02:57:07 +0000 2011","Android Beam - sharing contacts, articles, files, and games, pretty cool #Google #ICS"
"google",1,"126492009748889600","Wed Oct 19 02:56:59 +0000 2011","Slick beam capabilities included in Android 4.0. Touch 2 devices together and select ""Beam"" and content is transferred #Google #Android #ICS"
"google",1,"126491707247300608","Wed Oct 19 02:55:47 +0000 2011","really digging the #UI of of ""#Quick #Response"" from #Google android great for politely declining calls lol"
"google",1,"126491689396338688","Wed Oct 19 02:55:43 +0000 2011","goodbye Bump ... #Google #ICS"
"google",1,"126491556831182848","Wed Oct 19 02:55:11 +0000 2011","@WPdesignteam @joebelfiore @windowsphone - You guys just taught #Google #Android how to design a decent phone. So much Metro. Good Job guys!"
"google",1,"126491420260442112","Wed Oct 19 02:54:39 +0000 2011","People App in #ICS looks promising! As usual #Google is good at integrating different apps and make it a total new user experience!"
"google",1,"126491304036278272","Wed Oct 19 02:54:11 +0000 2011","On a positive note, advanced control of your data usage is a really great idea ;) #google #nexus"
"google",1,"126491109982613505","Wed Oct 19 02:53:25 +0000 2011","#google #icecreamsandwich totally blowing #Apple iShit away..."
"google",1,"126491084854530049","Wed Oct 19 02:53:19 +0000 2011","I love Ice Cream Sandwich :) #Android #Google #Samsung"
"google",1,"126491009558392832","Wed Oct 19 02:53:01 +0000 2011","#NerdBoner in full effect. Watching #Samsung #Google #NexusPrime #IceCreamSandwich live event! http://t.co/Rk9kPHss"
"google",1,"126490970803027969","Wed Oct 19 02:52:52 +0000 2011","Great, live contact management, quick contact card, add people directly to.your home screen #Android4.0 #Google"
"google",1,"126490696214511616","Wed Oct 19 02:51:46 +0000 2011","#Google has done it again ..... #IceCream Sandwich"
"google",1,"126490548306579457","Wed Oct 19 02:51:11 +0000 2011","New contact app builds on a magazine style layout and aggregates contact info from multiple sources. Very slick. #Google #Android #ICS"
"google",1,"126490282878443520","Wed Oct 19 02:50:08 +0000 2011","Nexus Prime looks NICE. #google #android"
"google",1,"126490137944268800","Wed Oct 19 02:49:33 +0000 2011","New Galaxy Nexus: Video looks awesome! #nexus #samsung #google #android bit.ly/nEJbyE"
"google",1,"126489924596793345","Wed Oct 19 02:48:42 +0000 2011","Infinite Spiral Bookcase for #Google Books looks amazing, interested to see where it is headed: http://t.co/RXWD6sN8"
"google",1,"126489848004608000","Wed Oct 19 02:48:24 +0000 2011","New Galaxy Nexus: App Improvements -  Inbuilt Panoramic Pictures #nexus #samsung #google #android bit.ly/nEJbyE"
"google",1,"126489841096597504","Wed Oct 19 02:48:22 +0000 2011","With the new #Google #Android 4.0 Ice-Cream Sandwich, you can take Panorama picture right Out-of-the-Box... SWEET!"
"google",1,"126489713782685696","Wed Oct 19 02:47:52 +0000 2011","RT @RespectMaSwagg: #ThingsWeAllLove ----&gt;&gt; #Google"
"google",1,"126489671730597888","Wed Oct 19 02:47:42 +0000 2011","Camera app now has Panorama capabilities! #Google #Android #ICS"
"google",1,"126489564415131649","Wed Oct 19 02:47:16 +0000 2011","Sounds tasty. :-P RT @mensacats: #Google Launches #Android Ice Cream Sandwich OS: http://t.co/Fj0BiiR8"
"google",1,"126489424807735296","Wed Oct 19 02:46:43 +0000 2011","I want some of these #google toys"
"google",1,"126489397507014656","Wed Oct 19 02:46:37 +0000 2011","Good god the camera app in Icecream Sandwich is amazing.. and that camera is FAST!  #samsung #google #android #galaxyNexus"
"google",1,"126489393526616064","Wed Oct 19 02:46:36 +0000 2011","Better gallery app to be included with Android 4.0 as well. #Google #Android #ICS"
"google",1,"126489263025033216","Wed Oct 19 02:46:05 +0000 2011","#ics shutter speed is insane! Wow! Two thumbs up #google"
"google",1,"126489200567664640","Wed Oct 19 02:45:50 +0000 2011","Android 4.0 FINALLY includes photo editing tools. #Google #Android #ICS"
"google",1,"126489182263721984","Wed Oct 19 02:45:45 +0000 2011","New Galaxy Nexus: OS /Hardware Improvements -  Camera Zero Shutter Lag #nexus #samsung #google #android bit.ly/nEJbyE"
"google",1,"126489085102661632","Wed Oct 19 02:45:22 +0000 2011","Data Usage feature looks amazing and useful! #Google #GalaxyNexus"
"google",1,"126489066077302784","Wed Oct 19 02:45:18 +0000 2011","Wow, very fast camera on Galaxy Nexus - faster than N9 i think :o #google"
"google",1,"126488933772169216","Wed Oct 19 02:44:46 +0000 2011","RT @Mrgareth: ""Top Three 'playing nice' scores were #Google, #Salesforce and #Xero"" in @itnews_au ""Which #Clouds Play Nice"" report: http ..."
"google",1,"126488863374983168","Wed Oct 19 02:44:29 +0000 2011","The new camera app along with the ""zero delay"" camera on the Galaxy Nexus is very nice! #Google #Android #ICS"
"google",1,"126488589046517760","Wed Oct 19 02:43:24 +0000 2011","Unbelievable Data Usage info on Ice Cream Sandwich #icecreamsandwich #googland #google #android #ics"
"google",1,"126488572772622336","Wed Oct 19 02:43:20 +0000 2011","Data usage in ICS.. Looks like I don't need Watchdog 3G Pro anymore.. hah! #Android #ICS #Google"
"google",1,"126488519265894400","Wed Oct 19 02:43:07 +0000 2011","This Data Usage feature looks amazing on ICS. #android #samsung #google #GALAXYNexus"
"google",1,"126488454921068544","Wed Oct 19 02:42:52 +0000 2011","Icecream Sandwich looking good so far. #android #google"
"google",1,"126488447098695680","Wed Oct 19 02:42:50 +0000 2011","@kymbersanden #google my favorite study guide"
"google",1,"126488384410619906","Wed Oct 19 02:42:35 +0000 2011","Ice cream Sandwich looks awesome #Google #ICS."
"google",1,"126488304341360640","Wed Oct 19 02:42:16 +0000 2011","New Galaxy Nexus: OS Improvements -  Data Usage tools inbuilt #nexus #samsung #google #android bit.ly/nEJbyE"
"google",1,"126488294325370880","Wed Oct 19 02:42:14 +0000 2011","#Google #Android Icecream Sandwich OS for Nexus Prime Released! [LIVE BLOG] | http://t.co/LF03ZKUz #technology #hk"
"google",1,"126488282862338049","Wed Oct 19 02:42:11 +0000 2011","I love the messages and emails on display at the ice cream sandwich event..""Peanuts are neither peas nor nuts. Discuss"" #samsung #google"
"google",1,"126488249739915264","Wed Oct 19 02:42:03 +0000 2011","what i love about #GOOGLE it always shows me that am not the only retarded person on this planet when am searching for stupid things :D"
"google",1,"126488202935664640","Wed Oct 19 02:41:52 +0000 2011","RT @SamsungMobileCA: #GALAXYNexus has arrived! #Samsung #Google"
"google",1,"126488018616987648","Wed Oct 19 02:41:08 +0000 2011","New calendar app with pinch to zoom capabilities. Far superior to the current one! #Google #Android #ICS"
"google",1,"126487844830191617","Wed Oct 19 02:40:26 +0000 2011","New Galaxy Nexus: App Improvements - Gmail  offline search of last 30 days  #nexus #samsung #google #android bit.ly/nEJbyE"
"google",1,"126487523366150144","Wed Oct 19 02:39:10 +0000 2011","I love how it syncs your #Chrome bookmarks with your phone! #icecreamsandwich #google"
"google",1,"126487508589621248","Wed Oct 19 02:39:06 +0000 2011","Thank god Gmail app has been redesigned under Android 4.0. Conversations automatically expanded. #Google #Android #ICS"
"google",1,"126487332865056768","Wed Oct 19 02:38:24 +0000 2011","Seriously!? Why do I still find the yellow pages ph book at my doorstep? These days I just #google it on my iphone."
"google",1,"126487172487462912","Wed Oct 19 02:37:46 +0000 2011","#excellent #AngryBirds #Google #Chrome #Commercial 1080p HD http://t.co/LLsLrxFM via @youtube"
"google",1,"126487153655029760","Wed Oct 19 02:37:42 +0000 2011","Watching the Android announcement from Google and Samsung. IceCream Sandwich looks really interesting. http://t.co/oeZK9iV1 #google #android"
"google",1,"126487090723700737","Wed Oct 19 02:37:27 +0000 2011","As an iPhone user, I think the Samsung Nexus Galaxy looks great. And Ice Cream Sandwich looks fantastic. http://t.co/Z9IDoNi7 #Google"
"google",1,"126487082905518081","Wed Oct 19 02:37:25 +0000 2011","WHAT!!!!!! #Google #Chrome syncs with your #Android device's bookmarks!?!?! NICE!"
"google",1,"126486849706401792","Wed Oct 19 02:36:29 +0000 2011","The Samsung Galaxy Nexus and Ice Cream Sandwich are sick! #android #icecreamsandwich #google"
"google",1,"126486332104130561","Wed Oct 19 02:34:26 +0000 2011","Inline keyboard spell check is nice #ICS with native voice dictation. #Android #Google"
"google",1,"126486322675318784","Wed Oct 19 02:34:23 +0000 2011","I can't wait to get the new #Galaxy #Nexus with #IceCreamSandwich... best yet it supports my #Google Wallet http://t.co/bqMuHxkK via @cnet"
"google",1,"126485171280166913","Wed Oct 19 02:29:49 +0000 2011","ICS on the Galaxy Nexus has very smooth and responsive screen and widget navigation. #Google #Android #ICS"
"google",1,"126484977176158208","Wed Oct 19 02:29:03 +0000 2011","New Galaxy Nexus: OS Improvements -  Built on Ice Cream Sandwich version of Android #nexus #samsung #google #android bit.ly/nEJbyE"
"google",1,"126484769285480448","Wed Oct 19 02:28:13 +0000 2011","New Galaxy Nexus: OS Improvements -  Stacks & Scrolling introduced for widgets  for richer content #samsung #google #android bit.ly/nEJbyE"
"google",1,"126484631389356032","Wed Oct 19 02:27:40 +0000 2011","Updated live wallpaper. Virtual buttons that disappear when you are in full screen mode. More awesome widgets. #Android #Google"
"google",0,"126534476875567104","Wed Oct 19 05:45:44 +0000 2011","There are too many #google services that do not work when you are a #googleapps user. #googleplus above all + profiles + #plusone"
"google",0,"126533446293127168","Wed Oct 19 05:41:39 +0000 2011","Starting to doubt #google android policy: no released android sources since 2.3.3! Curious for an opensource project to say the least..."
"google",0,"126527166195314688","Wed Oct 19 05:16:41 +0000 2011","Did #Google really just highlight a new font #Roboto as part of their #ICS announcement for #Android...?! Seriously."
"google",0,"126526648928579584","Wed Oct 19 05:14:38 +0000 2011","RT @businessuplift: Why #facebook and #google have got it wrong http://t.co/PDbF7H3f"
"google",0,"126520550876127232","Wed Oct 19 04:50:24 +0000 2011","#google+ is really confusing.."
"google",0,"126520337289580544","Wed Oct 19 04:49:33 +0000 2011","is mulling #google+ but hmmm, just aint shore bout nuther social media profile."
"google",0,"126518920122335233","Wed Oct 19 04:43:55 +0000 2011","ATHEN's review of #Google Docs #accessibility shows a lot of work needs to be done. http://t.co/rad9WdSw #a11y HT @chadleaman"
"google",0,"126517970179600385","Wed Oct 19 04:40:09 +0000 2011","Gonna dump one of my gmail accounts. not only do I get tons of spam I get tons of false positives. Not cool. #Google"
"google",0,"126517608697708545","Wed Oct 19 04:38:43 +0000 2011","The awkward moment when google #chrome take a hell of a lot time to load #googleplus #google"
"google",0,"126516572343910400","Wed Oct 19 04:34:36 +0000 2011","#Google #Cloud Service Blackouts Threaten Cloud Users: During a 30-day period in August and September, for ... http://t.co/G0ElVRVJ #TCN"
"google",0,"126516408317251585","Wed Oct 19 04:33:56 +0000 2011","Why Google+ Has Uphill Battle Vs. Facebook: Sean Parker http://t.co/L8RSX1Yf #google"
"google",0,"126515822750478337","Wed Oct 19 04:31:37 +0000 2011","RT @LCmediaHouse: 4chan's Chris Poole: #Facebook & #Google Are Doing It Wrong http://t.co/ZIxfa91N | via @RWW #socialmedia"
"google",0,"126515697181409280","Wed Oct 19 04:31:07 +0000 2011","Lecture Notes in Financial Economics pdf ebook:  http://t.co/7gJQvEwN #google"
"google",0,"126514511862706176","Wed Oct 19 04:26:24 +0000 2011","I hate tron theme #Google #ICS"
"google",0,"126507644742672384","Wed Oct 19 03:59:07 +0000 2011","Now, really #google how hypocritical is this? http://t.co/6nHuYFeh #analytics"
"google",0,"126506609823334400","Wed Oct 19 03:55:00 +0000 2011","Codename or not, awesome or not, I have a hard time taking ANYTHING called 'Ice Cream Sandwich' seriously. #google #android #sticky #melts"
"google",0,"126505594290057216","Wed Oct 19 03:50:58 +0000 2011","RT @IAmDkT: The only letdown of the Samsung Galaxy Nexus phone is the 5.0 MP Camera. #ICS #Samsung #SamsungGalaxyNexus #SGN #Android #Google"
"google",0,"126503098071007232","Wed Oct 19 03:41:03 +0000 2011","#Google introduce new Android tablet called 'Ice Cream Sandwich'? I'm a #Singaporean, and I'm (very) confused."
"google",0,"126502732369629184","Wed Oct 19 03:39:36 +0000 2011","#ICS introduces Facial recognition to unlock phone, however - the demo didn't go as planned.http://engt.co/q2KeC7 #Google Goof up! #Android"
"google",0,"126502274204831744","Wed Oct 19 03:37:47 +0000 2011","Ice cream sandwich, really #google?"
"google",0,"126501869920075776","Wed Oct 19 03:36:10 +0000 2011","@kursed #Google is terrible at presentations. Hated the terrible camera interference from the huge screen behind the speakers. #headache"
"google",0,"126499555742203904","Wed Oct 19 03:26:58 +0000 2011","just watched the #GalaxyNexus announcement by #Google and #Samsung.. The only thing keeping me from buying? It's only on #Verizon. #FAIL"
"google",0,"126497996350304257","Wed Oct 19 03:20:47 +0000 2011","@MrTonySays I tried to #Google the word #Visigoth and apparently  #Google didn't know either cause my  phone froze."
"google",0,"126497929593761792","Wed Oct 19 03:20:31 +0000 2011","RT @SHlFT: dear #google & #samsung... learn some presentation 101 first. please."
"google",0,"126497514168922112","Wed Oct 19 03:18:52 +0000 2011","The only letdown of the Samsung Galaxy Nexus phone is the 5.0 MP Camera. #ICS #Samsung #SamsungGalaxyNexus #SGN #Android #Google"
"google",0,"126496987192373248","Wed Oct 19 03:16:46 +0000 2011","BOO to no GoogleMusic news, US carrier news, or price points. #google #ICS #android"
"google",0,"126495219058348032","Wed Oct 19 03:09:45 +0000 2011","From it's laughable file: #google will #encrypt #search results BUT only if U have ""logged in"" so they can maximize their #data #collection!"
"google",0,"126494402381225984","Wed Oct 19 03:06:30 +0000 2011","+1 RT @SHlFT: dear #google & #samsung... learn some presentation 101 first. please."
"google",0,"126494319749238784","Wed Oct 19 03:06:10 +0000 2011","dear #google & #samsung... learn some presentation 101 first. please."
"google",0,"126494303173361664","Wed Oct 19 03:06:06 +0000 2011","+1 RT @tah_med: the background is SO horrible for this stream #Samsung #Google #NexusPrime they should've seen what #Adobe did at #AdobeMAX"
"google",0,"126494261922381824","Wed Oct 19 03:05:56 +0000 2011","WHERE THE HECK IS THE @ANDROID SOURCE CODE ?? WTF #GOOGLE"
"google",0,"126493910037037058","Wed Oct 19 03:04:32 +0000 2011","Not greatly impressed with #Google and #Samsung presentation skills."
"google",0,"126493616519647232","Wed Oct 19 03:03:23 +0000 2011","Android ice-cream sandwich's ""Face Unlock"" fails to perform recognition when demo'ed on stage :D #google #Nexus http://t.co/CSAeFRHc"
"google",0,"126493030185316352","Wed Oct 19 03:01:03 +0000 2011","good job, #google.  did anyone get when any of this shit is actually shipping? #infofail"
"google",0,"126492741764005890","Wed Oct 19 02:59:54 +0000 2011","We need dates! #google #samsung #launchfail"
"google",0,"126492244151771137","Wed Oct 19 02:57:55 +0000 2011","Also, the #Google problem. @chucktodd: Problem for Santorum's electability argument: the double-digit loss in 2006"
"google",0,"126491870900666368","Wed Oct 19 02:56:26 +0000 2011","They need to talk about the battery life impact of #AndroidBeam. It can't be good news. #Google #Android #ICS"
"google",0,"126491825660887040","Wed Oct 19 02:56:16 +0000 2011","another android demo #fail! #google"
"google",0,"126491776482689024","Wed Oct 19 02:56:04 +0000 2011","Too bad #google didn't have a tribute graphic for #DennisRitchie."
"google",0,"126491509527805952","Wed Oct 19 02:55:00 +0000 2011","Presentation fail. #Google #Samsung"
"google",0,"126491502493962240","Wed Oct 19 02:54:58 +0000 2011","The #Google guys are illustrating the perils of a live demonstration admirably. #GalaxyNexus #ICS #Android"
"google",0,"126491480087986176","Wed Oct 19 02:54:53 +0000 2011","Android Crashing: 1, Google 'Quick Response' Feature: 0 #Google #ICS #Android #QuickResponse"
"google",0,"126490750958567424","Wed Oct 19 02:51:59 +0000 2011","#Google People app...the next revolution in stalking."
"google",0,"126490477288636416","Wed Oct 19 02:50:54 +0000 2011","first thing on #google's to do list: hire a performance coach."
"google",0,"126489936944832512","Wed Oct 19 02:48:45 +0000 2011","#Samsung, #Google Unveil Phone http://t.co/hOB37hbO"
"google",0,"126488700975726593","Wed Oct 19 02:43:51 +0000 2011","Why is #Google whoring for SAMSUNG? #ICS"
"google",0,"126487669533442048","Wed Oct 19 02:39:45 +0000 2011","If #Google don't fix pinch-zoom on #Android 2.3.6 soon, I might have to leave the fold and go #CyanogenMod"
"google",0,"126487604035198976","Wed Oct 19 02:39:29 +0000 2011","facial recognition failed #IceCreamSandwich jajajajajajaj #FacialUnlock #samsumg #Google"
"google",0,"126487206570373120","Wed Oct 19 02:37:54 +0000 2011","Ouch, crash and burn. #Android facial recognition in #IceCreamSandwich didn't work during the presentation. http://t.co/6vsasZyT #Google"
"google",0,"126487152338026496","Wed Oct 19 02:37:41 +0000 2011","Google is gonna need to do better than this to beat #iOS #Android #icecreamsandwich #Google http://t.co/tBNyX7p7"
"google",0,"126486838549557248","Wed Oct 19 02:36:26 +0000 2011","RT @RoycinD: Face Unlock ! #ICS Literally knows your face! #Google #galaxynexus FAILED !"
"google",0,"126486654830645249","Wed Oct 19 02:35:43 +0000 2011","#fail on the face recognition not working #google #samsung"
"google",0,"126486634458914816","Wed Oct 19 02:35:38 +0000 2011","The face recognition unlock would be cool if it works. #android #google #icecreamsandwich"
"microsoft",1,"126689007512993792","Wed Oct 19 15:59:47 +0000 2011","Zune Music arrives in Canada! http://t.co/CJJ12v4I #microsoft #music #news"
"microsoft",1,"126688284343672832","Wed Oct 19 15:56:55 +0000 2011","#Kinect Makes Learning Playful with Help from #SesameStreet and #NationalGeographic #education #microsoft http://t.co/E5uhka8F"
"microsoft",1,"126685198531297281","Wed Oct 19 15:44:39 +0000 2011","Håper #microsoft lager ny releasepartyguide for #mango. #greatsuccess"
"microsoft",1,"126677986522054657","Wed Oct 19 15:16:00 +0000 2011","Hey parents! Did you know about the free tools from #Microsoft that help keep your kids safe online? Live Family Safety http://t.co/muuWbGPn"
"microsoft",1,"126674853230149632","Wed Oct 19 15:03:33 +0000 2011","“@sinanaral: Check out the new #Microsoft #faculty fellows here: http://t.co/2oeNsVG8 poised to change the world!” Go @jure !"
"microsoft",1,"126670032951443456","Wed Oct 19 14:44:23 +0000 2011","Maybe #apple could use some of it's billions to do some good in the world?...oh wait, that's what #microsoft does."
"microsoft",1,"126669652469350401","Wed Oct 19 14:42:53 +0000 2011","#Microsoft @ ISB... watching the new windows 8 in action...pretty impressive! Finally a contender to mac os.. Interesting battle in store"
"microsoft",1,"126668529046007808","Wed Oct 19 14:38:25 +0000 2011","#Microsoft tries to combine the #Xbox #WindowsPhone and #PC and all of them will share the same neat looking interface. http://t.co/J332zfpO"
"microsoft",1,"126665091381854208","Wed Oct 19 14:24:45 +0000 2011","Check out the new #Microsoft #faculty fellows here: http://t.co/GCicPEX4 poised to change the world!"
"microsoft",1,"126663720075141121","Wed Oct 19 14:19:18 +0000 2011","I became a #Citizenship #Member at @Microsoft ...Thanks #GOD :) #MSPEgypt #Microsoft"
"microsoft",1,"126659125751971840","Wed Oct 19 14:01:03 +0000 2011","Blog Post: Cool Tool : Microsoft Mouse Without Borders. http://t.co/uM860jFh #Tools #Utilities #microsoft"
"microsoft",1,"126658961263951873","Wed Oct 19 14:00:24 +0000 2011","Forget Siri, there is still no beating speech commands on @windowsphone: http://t.co/19GAjSGi #wp7 #mango #tellme #microsoft #siri"
"microsoft",1,"126658937155108866","Wed Oct 19 14:00:18 +0000 2011","#Microsoft tests and proves #AppSense enterprise scalability! 78K users on one personalization DB - http://t.co/xtZMPSMT #enterprise"
"microsoft",1,"126658528965439488","Wed Oct 19 13:58:41 +0000 2011","@RAD_Software Yes good points about #ERP but unfair assessment in saying ""#SAGE, #SAP and #Microsoft Dynamics, are not delivering"""
"microsoft",1,"126650473322262529","Wed Oct 19 13:26:40 +0000 2011","Good dev opportunities at #Microsoft UX Tour, Helsinki Finland http://t.co/hCKJXz4K"
"microsoft",1,"126638821948403712","Wed Oct 19 12:40:22 +0000 2011","@edbott you have sugar-coated the FSF secure boot reaction. This is blatant anti-#Microsoft propaganda."
"microsoft",1,"126637126010929152","Wed Oct 19 12:33:38 +0000 2011","V. impressed w/ Image Composite Editor from @MSFTresearch for creating panoramas from individual images. http://t.co/SO7W7spn Tx #Microsoft!"
"microsoft",1,"126633708315873280","Wed Oct 19 12:20:03 +0000 2011","RT @fran_mac_ I have been blown away by technological innovations.... #microsoft should do more #marketing!!"
"microsoft",1,"126629320948060161","Wed Oct 19 12:02:37 +0000 2011","I have been blown away by technological innovations.... #microsoft should do more #marketing!!"
"microsoft",1,"126611718376919041","Wed Oct 19 10:52:40 +0000 2011","RT @asherCFO: #Yahoo up 4 sale - again! Yrs back #Microsoft almost bought it & now glad it didn't. This could b deal of the year that do ..."
"microsoft",1,"126610651916410881","Wed Oct 19 10:48:26 +0000 2011","#Yahoo up 4 sale - again! Yrs back #Microsoft almost bought it & now glad it didn't. This could b deal of the year that dosent happen!"
"microsoft",1,"126608712407322624","Wed Oct 19 10:40:43 +0000 2011","#Microsoft presents #Omnitouch - http://t.co/ui0aD1FJ - Very impressive and futuristic technology!"
"microsoft",1,"126605340270788608","Wed Oct 19 10:27:19 +0000 2011","Is #Google Down? http://t.co/wFrzKYsN via @Ejunkie Good for #Bing, #Microsoft ’s investments paying off"
"microsoft",1,"126603756971360256","Wed Oct 19 10:21:02 +0000 2011","RT @bestpantsTen: http://t.co/P4m8xvaz #iPads less desired than #Windows tablets, says study #Apple #Microsoft #MS"
"microsoft",1,"126599751402668032","Wed Oct 19 10:05:07 +0000 2011","RT @DariuszPorowski: RT Me too! @rem8: On my way home from 1st day of #MTS11. Had great time with @alead @DariuszPorowski and others #mv ..."
"microsoft",1,"126596256138137600","Wed Oct 19 09:51:14 +0000 2011","#mango shows #microsoft still has the taste for smartphone success http://t.co/mAOQaplH"
"microsoft",1,"126583935139454976","Wed Oct 19 09:02:17 +0000 2011","#Microsoft details Search improvements in #Windows 8 Start Screen http://t.co/f6AztiaD"
"microsoft",1,"126581165636333568","Wed Oct 19 08:51:18 +0000 2011","one more picture of the services provided in the #cloud. I am in love with #Microsoft http://t.co/Q0QLeokZ"
"microsoft",1,"126579574921371648","Wed Oct 19 08:44:57 +0000 2011","Windows Runtime and .NET: Better Together http://t.co/z7BBJ1xU #dotnet #dev #WinRT #microsoft"
"microsoft",1,"126578340902617088","Wed Oct 19 08:40:02 +0000 2011","Nice talk by @renatmin #KenyaOpenDoor #microsoft #community"
"microsoft",1,"126570919513686018","Wed Oct 19 08:10:33 +0000 2011","OMG :) :) #Microsoft #Sharepoint is actually working!  Thanks to my excellent colleague William"
"microsoft",1,"126559269603647488","Wed Oct 19 07:24:15 +0000 2011","#windowsphone #wp7 #Microsoft really @google ? http://t.co/vI0htJRr  #icecreamsandwichfail innovation by imitation sad sad"
"microsoft",1,"126555956975910912","Wed Oct 19 07:11:06 +0000 2011","The more i use Office 2010 the more i fall in love it with. #honest #genius #microsoft"
"microsoft",1,"126553559847288832","Wed Oct 19 07:01:34 +0000 2011","@guardiantech I love the ""And now it is looking to China:"" Apple funds sweatshops there while Gates funds a foundation #apple #microsoft"
"microsoft",1,"126552645497405440","Wed Oct 19 06:57:56 +0000 2011","That was a good one(commercial). #microsoft"
"microsoft",1,"126532025552347136","Wed Oct 19 05:36:00 +0000 2011","Welcome Skype to the #Microsoft family. We can do amazing things together. http://t.co/YKCHtu8h #welcomeskype"
"microsoft",1,"126529895923843072","Wed Oct 19 05:27:32 +0000 2011","&lt;3 u #microsoft!!!"
"microsoft",1,"126499160995282944","Wed Oct 19 03:25:24 +0000 2011","Absolutely loving the ARC mouse, courtesy of the one and only @gregulator0. #inspired #microsoft"
"microsoft",1,"126494986983325696","Wed Oct 19 03:08:49 +0000 2011","Not a #Microsoft fan but this is cool. Video: Turn any surface into a #touchscreen http://t.co/yy1hNrbQ"
"microsoft",1,"126492789939765248","Wed Oct 19 03:00:05 +0000 2011","Wow #android #ics, lots of uh uh uh uh talk going on... forsure not a #microsoft #mango launch were people have public speaking skills"
"microsoft",1,"126479912407273472","Wed Oct 19 02:08:55 +0000 2011","Jus updated my computer to Windows 7 .....I'm on thanks to #microsoft"
"microsoft",0,"126802977813037057","Wed Oct 19 23:32:40 +0000 2011","ICS #android is going to kill both Mango #wmp #microsoft and #rimm.  it already killed webOS and Nokia OS..."
"microsoft",0,"126795554079510528","Wed Oct 19 23:03:10 +0000 2011","Only people with names beginning with 'A' are getting mail this week (a la #Microsoft)"
"microsoft",0,"126793207613894659","Wed Oct 19 22:53:51 +0000 2011","#Microsoft #Outlook #2011 for #Mac #sucks… #hate"
"microsoft",0,"126790861831938048","Wed Oct 19 22:44:31 +0000 2011","#Microsoft freezes some #Xbox accounts after hack reports - http://t.co/w051BfS0  via @CanadaIT"
"microsoft",0,"126744130784198656","Wed Oct 19 19:38:50 +0000 2011","Reader 'Tronman' compares #SteveBallmer to an albatross around #Microsoft's neck.  Do you agree?  Join the discussion! http://t.co/2iJK0VB3"
"microsoft",0,"126744129135845377","Wed Oct 19 19:38:49 +0000 2011","Reader 'Tronman' compares #SteveBallmer to an albatross around #Microsoft's neck.  Do you agree?  Join the discussion! http://t.co/DFFkvnSJ"
"microsoft",0,"126743725677346816","Wed Oct 19 19:37:13 +0000 2011","#WindowsPhone7 would get a lot more blog and review love if #Microsoft provided a tool to grab screenshots. It's nearly impossible #wpt"
"microsoft",0,"126740373883191296","Wed Oct 19 19:23:54 +0000 2011","RT @Saptha: When u dine with a customer u shoukd never explain abt solutions unless he ask , M$ never lean the concept #microsoft #fail"
"microsoft",0,"126738867087884288","Wed Oct 19 19:17:55 +0000 2011","I hate #Microsoft PowerPoint!"
"microsoft",0,"126730748882460672","Wed Oct 19 18:45:39 +0000 2011","Is #Microsoft just another evil corporation? Beware when it comes to buying a #Windows8 PC http://t.co/QbgXXJMm"
"microsoft",0,"126730580934135809","Wed Oct 19 18:44:59 +0000 2011","#skype is now part of stupid #microsoft it seems"
"microsoft",0,"126730265551843329","Wed Oct 19 18:43:44 +0000 2011","#Skype is underwhelming: I use skype. It was recently bought by #Microsoft for  $8.5 billion. As such it has a v... http://t.co/Xli2bR42"
"twitter",1,"126883590041640960","Thu Oct 20 04:52:59 +0000 2011","i love my background!! #twitter"
"twitter",1,"126883448173510656","Thu Oct 20 04:52:26 +0000 2011","•Take Off Make up  • Say A Little More On #twitter • Go to Sleep &lt;3like my plan?(;"
"twitter",1,"126883416280006656","Thu Oct 20 04:52:18 +0000 2011","Okay..I feel slightly more connected to the world and have put #facebook and #twitter on my #blackberry..its not the same..but it helps"
"twitter",1,"126883364887203840","Thu Oct 20 04:52:06 +0000 2011","@loveguru_b i miss my #twitter boo"
"twitter",1,"126883290782244864","Thu Oct 20 04:51:48 +0000 2011","*singing*! everytime  I  try  to leave something keeps  pulling me  back  (me  back) telling me  I  need  #Twitter & all that. lol  (:"
"twitter",1,"126883187300384768","Thu Oct 20 04:51:23 +0000 2011","Got this new #twitter app and a fresh ass theme with it! FWM"
"twitter",1,"126882971411165185","Thu Oct 20 04:50:32 +0000 2011","@ammmylewis... Did @CarsonFratus just ditch Twitter for sleep?? #Weirdo... #Twitter&gt;Sleep"
"twitter",1,"126882662932692992","Thu Oct 20 04:49:18 +0000 2011","I'm starting to get really concerned, sending hashtags in emails :P #twitter is taking over our lives :D"
"twitter",1,"126881835463614464","Thu Oct 20 04:46:01 +0000 2011","I cnt get over that shit lol hell naw #Twitter"
"twitter",1,"126881080178507776","Thu Oct 20 04:43:01 +0000 2011","Today I was introduced as BigDealDawson at #LGFW !  O #twitter and #social media I love you! Teehee xx"
"twitter",1,"126880912754475008","Thu Oct 20 04:42:21 +0000 2011","#Twitter &gt; #Facebook"
"twitter",1,"126880559162077184","Thu Oct 20 04:40:57 +0000 2011","@BrianCrockerJr yeah, it shows. glad you have #twitter :)"
"twitter",1,"126880385605976064","Thu Oct 20 04:40:15 +0000 2011","I've pretty much abandoned Facebook for Twitter. #twitter'slegit"
"twitter",1,"126879785908580352","Thu Oct 20 04:37:52 +0000 2011","Gotta love #Twitter - shit goes round the World like lightning-on-speed..."
"twitter",1,"126878670685085696","Thu Oct 20 04:33:27 +0000 2011","Hello #twitter!"
"twitter",1,"126877750131818497","Thu Oct 20 04:29:47 +0000 2011","In that #twitter mood!"
"twitter",1,"126877362632667136","Thu Oct 20 04:28:15 +0000 2011","When I say I'm going to bed that really means I'm gonna sit on twitter for 30 min then go to bed! #Twitter&lt;3"
"twitter",1,"126877263311536128","Thu Oct 20 04:27:51 +0000 2011","I lovee #Twitter   #swaag!"
"twitter",1,"126877209813188608","Thu Oct 20 04:27:38 +0000 2011","Dear #Twitter, I fucking missed you today, &gt;&gt; internet was down :/"
"twitter",1,"126877171926040576","Thu Oct 20 04:27:29 +0000 2011","My 100 tweet goes to #twitter . Thanks for providing me with another way of keeping me busy during school!"
"twitter",1,"126877056578486272","Thu Oct 20 04:27:02 +0000 2011","#Twitter TEAMO♥ Chao!"
"twitter",1,"126876600083025920","Thu Oct 20 04:25:13 +0000 2011","@Garr_Williams isn't this place great? #twitter"
"twitter",1,"126876125107462144","Thu Oct 20 04:23:20 +0000 2011","RT @EverettColdwell: @SusanFelicity One really good thing with #twitter is that most people appear to be on the progressive, left, socia ..."
"twitter",1,"126875441217798144","Thu Oct 20 04:20:37 +0000 2011","There is no social media without #Twitter... Who could be #Twitterless?"
"twitter",1,"126875378013843456","Thu Oct 20 04:20:22 +0000 2011","@AlexMufferi #twitter&gt;facebook"
"twitter",1,"126874748469788672","Thu Oct 20 04:17:51 +0000 2011","Guess I'm addicted to #Twitter! Writing the answers to 15 marks University exam questions in less than 140 characters! :P"
"twitter",1,"126874346873556993","Thu Oct 20 04:16:16 +0000 2011","@SusanFelicity One really good thing with #twitter is that most people appear to be on the progressive, left, social side. This scares gov."
"twitter",1,"126873707066048513","Thu Oct 20 04:13:43 +0000 2011","Apples to oranges maybe, but #Twitter is way more engaging than #FB. Content vs. Stalkerismo"
"twitter",1,"126873518385274882","Thu Oct 20 04:12:58 +0000 2011","Laying down on my bed and I'm on my favorite app. #twitternation #twitter &gt; #facebook"
"twitter",1,"126873128348561409","Thu Oct 20 04:11:25 +0000 2011","@TheMarketaire This whole #Facebook change makes more nervous than excited. What about privacy, etc.? I much prefer #Twitter"
"twitter",1,"126872791197814784","Thu Oct 20 04:10:05 +0000 2011","#Twitter #twitter :)"
"twitter",1,"126870551032643584","Thu Oct 20 04:01:11 +0000 2011","RT@jeffbullas Twitters impressive numbers  http://t.co/VJRSsfYn #Twitter #SMM #SocialMedia"
"twitter",1,"126870402751397889","Thu Oct 20 04:00:35 +0000 2011","fuck that facebook bullshit. #twitter bitch"
"twitter",1,"126869964144644097","Thu Oct 20 03:58:51 +0000 2011","#Twitter is hella coo... like farreal i love twitter."
"twitter",1,"126869134238679042","Thu Oct 20 03:55:33 +0000 2011","FUCK #facebook #twitter is way better #teamfollowback #followme"
"twitter",1,"126868475892338688","Thu Oct 20 03:52:56 +0000 2011","Haven't been on this Twitter shit in a while man. Here because looks like #AboutThatLife be haven hella fun on #Twitter"
"twitter",1,"126868330098331648","Thu Oct 20 03:52:21 +0000 2011","twitter just helped me find the song from the end of a TV show i just watched. #Twitter &gt; ..."
"twitter",1,"126867350476697601","Thu Oct 20 03:48:28 +0000 2011","#twitter addict :)"
"twitter",1,"126865422174785536","Thu Oct 20 03:40:48 +0000 2011","RT @drewbezanson: You can literally go back and forth between #Facebook, #twitter, #text and #email all do. #technology is too good."
"twitter",1,"126864056366804992","Thu Oct 20 03:35:22 +0000 2011","@tas82011 Thnx. Isn't #Twitter pretty damn amazing! Hope yr enjoying it. Fast like you and I!"
"twitter",1,"126863862791282688","Thu Oct 20 03:34:36 +0000 2011","RT @TheSoap88: #Twitter is interesting 24hrs a day. #Facebook is interesing 2hrs a day."
"twitter",1,"126863821594832897","Thu Oct 20 03:34:26 +0000 2011","Dear #twitter I have missed you. Promise i'll keep in touch more often"
"twitter",1,"126863084433326080","Thu Oct 20 03:31:30 +0000 2011","I would like to thank #twitter for being here when I was bored ,sad , mad, happy and every other mood . Now twitter is a true friend .!"
"twitter",1,"126862820578050048","Thu Oct 20 03:30:28 +0000 2011","RT @derryXOwners: I like #twitter"
"twitter",1,"126862735953768448","Thu Oct 20 03:30:07 +0000 2011","But fb still sucks &amp; #twitter beats it anyday!"
"twitter",1,"126862443275235328","Thu Oct 20 03:28:58 +0000 2011","I love #twitter #twitterswag"
"twitter",1,"126862309497905152","Thu Oct 20 03:28:26 +0000 2011","I like #twitter"
"twitter",1,"126862124201947136","Thu Oct 20 03:27:42 +0000 2011","This twitter shit is funny and entertaining ... I haven't did shit all day but my fingers are hurting #twitter"
"twitter",1,"126861364227608577","Thu Oct 20 03:24:40 +0000 2011","RT @TreyHob21: #twitter gives everyone that voice that they believe should be heard by people... unlike real life... lol"
"twitter",1,"126860944352612353","Thu Oct 20 03:23:00 +0000 2011","#twitter i love you!"
"twitter",1,"126860415085973504","Thu Oct 20 03:20:54 +0000 2011","@KylieMessier yeahh you did! It was about time. Caught the #twitter bug and now i'm hooked!"
"twitter",1,"126860046981279744","Thu Oct 20 03:19:26 +0000 2011","@science_alex hashtags are used here #twitter&gt;facebook"
"twitter",1,"126859858443112449","Thu Oct 20 03:18:41 +0000 2011","I keep forgettin how much i really like #Twitter lol"
"twitter",1,"126859371094360064","Thu Oct 20 03:16:45 +0000 2011","#twitter :)"
"twitter",1,"126858477942476800","Thu Oct 20 03:13:12 +0000 2011","RT @ahhfuckitsguss: #twitter can be so useful on letting out your feeling when you cant in the real world ."
"twitter",1,"126858393909608448","Thu Oct 20 03:12:52 +0000 2011","My 3 biggest obsessions: #twitter, #dancemoms, and #desperatehousewives. &lt;3"
"twitter",1,"126857095088840706","Thu Oct 20 03:07:43 +0000 2011","#twitter is jumpin as usual :)"
"twitter",1,"126857082199744513","Thu Oct 20 03:07:39 +0000 2011","My Facebook messed up and I had to make a new one so... add me! Haha at least #twitter is reliable"
"twitter",0,"126883562652844033","Thu Oct 20 04:52:53 +0000 2011","#Twitter y #Facebook OFF"
"twitter",0,"126883300227817472","Thu Oct 20 04:51:51 +0000 2011","#Twitter are you freaking kidding me #wth... http://t.co/zKn2bu5R"
"twitter",0,"126882964582838272","Thu Oct 20 04:50:30 +0000 2011","RT @mainey_maine: RT @ItalianJoya i better be able to see my RT's tomorrow #twitter and tell that lil blue ass bird, (cont) http://t.co/ ..."
"twitter",0,"126882934568390656","Thu Oct 20 04:50:23 +0000 2011","Just hit my hourly usage limit on #twitter. How does that even happen? All I'm doing is listing people...and I was almost done! #ugh"
"twitter",0,"126882761733705728","Thu Oct 20 04:49:42 +0000 2011","RT @FuckingShinez: #Twitter = #Dead ""this is why im never on it now"""
"twitter",0,"126881698783834112","Thu Oct 20 04:45:28 +0000 2011","I hate #twitter right now.."
"twitter",0,"126881658854064128","Thu Oct 20 04:45:19 +0000 2011","I'm not getting all of my @ replies #twitter if it wasn't for my emails telling me that some1 replied to me I wouldn't even know it #nobueno"
"twitter",0,"126881376074076161","Thu Oct 20 04:44:12 +0000 2011","Wtf is a tweet , sounds like tha dam cartoon network #tweeted #tweeter #twitter #twitterer"
"twitter",0,"126881010301419520","Thu Oct 20 04:42:44 +0000 2011","#TWITTER SUCKS FOR HAVING A #FOLLOW LIMIT =\"
"twitter",0,"126880978185625600","Thu Oct 20 04:42:37 +0000 2011","@ZackSiezmagraff A few people are reporting #twitter retweets not working. Probably a technical problem."
"twitter",0,"126880813991202816","Thu Oct 20 04:41:58 +0000 2011","So my mentions don't work? And my TL don't be wanting to update. Is #twitter moving servers or doing maintenance?"
"twitter",0,"126879988602519552","Thu Oct 20 04:38:41 +0000 2011","Well... @Paging_Dr_A has gotten back on #twitter.. there goes my TL lol"
"twitter",0,"126879964619485185","Thu Oct 20 04:38:35 +0000 2011","Anyone in #twitter land know if retweets are broken? Haven't seen any since Tuesday."
"twitter",0,"126878518310223874","Thu Oct 20 04:32:50 +0000 2011","RT @ItalianJoya i better be able to see my RT's tomorrow #twitter and tell that lil blue ass bird, (cont) http://t.co/xGHoev8k"
"twitter",0,"126878448575717376","Thu Oct 20 04:32:34 +0000 2011","RT @ItalianJoya: i better be able to see my RT's tomorrow #twitter and tell that lil blue ass bird, and fat ass over capacity whale to!"
"twitter",0,"126877484271665152","Thu Oct 20 04:28:44 +0000 2011","#Twitter ain't showing my current mentions or my tweets retweeted #Ughh"
"twitter",0,"126877335399051264","Thu Oct 20 04:28:08 +0000 2011","i better be able to see my RT's tomorrow #twitter and tell that lil blue ass bird, and fat ass over capacity whale to!"
"twitter",0,"126877245347348480","Thu Oct 20 04:27:47 +0000 2011","#Twitter, will you please fix this RT problem?"
"twitter",0,"126877135926337537","Thu Oct 20 04:27:21 +0000 2011","#Twitter = #Dead ""this is why im never on it now"""
"twitter",0,"126876956443688960","Thu Oct 20 04:26:38 +0000 2011","Im gonna need #Twitter to get all these problems fixed ASAP."
"twitter",0,"126876682207502336","Thu Oct 20 04:25:32 +0000 2011","#Twitter'sMalfunctioningAgain"
"twitter",0,"126876493153452032","Thu Oct 20 04:24:47 +0000 2011","#Twitter is blowing me ; I can't see my retweets ;("
"twitter",0,"126876140269862912","Thu Oct 20 04:23:23 +0000 2011","Man #Twitter Is Gettin #BORING"
"twitter",0,"126876046028050432","Thu Oct 20 04:23:01 +0000 2011","#twitter app also doesn't show me the conversation when I touch a tweet."
"twitter",0,"126875653210521600","Thu Oct 20 04:21:27 +0000 2011","Anyone else having trouble with the (i)Pad #twitter app not updating @'s? I get notified but can't see them in the app."
"twitter",0,"126874389210861568","Thu Oct 20 04:16:26 +0000 2011","@Licia0321 Damn what the hell, I think my #Twitter might need a damn #Exorcist!!"
"twitter",0,"126873912624693249","Thu Oct 20 04:14:32 +0000 2011","#Twitter got me all messed up everytime i compose a text msg i get stressed I only have 140 caracteres! all dis networkin is gettin confusin"
"twitter",0,"126873860745330689","Thu Oct 20 04:14:20 +0000 2011","@8Sunni Yeah shit happens, #Twitter is a real whore sometimes!"
"twitter",0,"126872492118769664","Thu Oct 20 04:08:53 +0000 2011","#Twitter is Fawkin up!!!"
"twitter",0,"126872316142559232","Thu Oct 20 04:08:12 +0000 2011","#twitter show my fuckin retweets bitch"
"twitter",0,"126871878886363136","Thu Oct 20 04:06:27 +0000 2011","#twitter is sooo trash ritenow with all dezz #highscoolmemories -__-"
"twitter",0,"126871286545788928","Thu Oct 20 04:04:06 +0000 2011","WHY DFF IS #TWITTER STILL LAGGIN ON SHOWIN WHO RETWEETS UR SHITT"
"twitter",0,"126870923591692288","Thu Oct 20 04:02:39 +0000 2011","People should be more interesting on #facebook and #twitter at midnight. I'm getting bored."
"twitter",0,"126870920018137088","Thu Oct 20 04:02:39 +0000 2011","Tried explaining #Twitter to my mom, but her ""why would you want to do that?"" argument was pretty bulletproof. #igiveup"
"twitter",0,"126870745258266626","Thu Oct 20 04:01:57 +0000 2011","#twitter is a fad. Was addicted now I don't rly care."
"twitter",0,"126870358816067584","Thu Oct 20 04:00:25 +0000 2011","RT @mixedchik22: #Twitter.... Side Affects include: Procrastination, No Sleep, Unable to Focus on ANYTHING, Subtweeting, RT, TT, and Low ..."
"twitter",0,"126870162510057473","Thu Oct 20 03:59:38 +0000 2011","Okay #Twitter, it'd be muchhh appreciated if you could start working on my computer soon."
"twitter",0,"126869855621218304","Thu Oct 20 03:58:25 +0000 2011","#Twitter.... Side Affects include: Procrastination, No Sleep, Unable to Focus on ANYTHING, Subtweeting, RT, TT, and Low Batteries"
"twitter",0,"126869842769870848","Thu Oct 20 03:58:22 +0000 2011","RT @nagoul1: #Retweets section of my #twitter account has not been working for 17 hours! Is Everyone else having this problem? #RT #RTs"
"twitter",0,"126869706639544320","Thu Oct 20 03:57:49 +0000 2011","#Retweets section of my #twitter account has not been working for 17 hours! Is Everyone else having this problem? #RT #RTs"
"twitter",0,"126869466054275073","Thu Oct 20 03:56:52 +0000 2011","for some reason #twitter isnt allowing me to see my tweets that got retweeted."
"twitter",0,"126869063023607808","Thu Oct 20 03:55:16 +0000 2011","Good lord #twitter send my bloody tweets! #ihateyourightnow"
"twitter",0,"126869039233511425","Thu Oct 20 03:55:10 +0000 2011","I feel all alone on #twitter. #itstolate"
"twitter",0,"126868993263943682","Thu Oct 20 03:54:59 +0000 2011","So im about to make another #twitter account since this one fucked up"
"twitter",0,"126868622026080256","Thu Oct 20 03:53:31 +0000 2011","My DM's Come in So Fucking Late, Damn #Twitter"
"twitter",0,"126868404182319105","Thu Oct 20 03:52:39 +0000 2011","Yep it's official, my tweets that get RT'd aren't showing me when they get RT'd. Dammit #Twitter, sometimes it's #Love/Hate thing we have!!"
"twitter",0,"126867983455879168","Thu Oct 20 03:50:59 +0000 2011","@MsTapoutBarbie Yep figured my shit is jacked. Dammit #Twitter!!"
"twitter",0,"126867876115259394","Thu Oct 20 03:50:33 +0000 2011","dear @twitter / #twitter FIX YOUR SHIT. we cant see our retweets or mentions!"
"twitter",0,"126867543955738624","Thu Oct 20 03:49:14 +0000 2011","#Twitter got DEAD as fuck all of a sudden!!!"
"twitter",0,"126867446220062720","Thu Oct 20 03:48:50 +0000 2011","I HATE #TWITTER"
"twitter",0,"126866560756363264","Thu Oct 20 03:45:19 +0000 2011","My #Twitter acting funnyyyyyyy...."
"twitter",0,"126866493370679297","Thu Oct 20 03:45:03 +0000 2011","The first thing I do when I get home is either get on #facebook or #twitter. What is wrong with me?"
"twitter",0,"126866003094290434","Thu Oct 20 03:43:06 +0000 2011","still not quite sure how to use this/what the point of it is... #twitter? #idontunderstand"
"twitter",0,"126865431142219776","Thu Oct 20 03:40:50 +0000 2011","#twitter why must you be so difficult?"
"twitter",0,"126864648577351681","Thu Oct 20 03:37:43 +0000 2011","Thank you #twitter for not giving me the 10 tweets that have been tweeted at me in the past 3 days! Lol #blameitontheiphone #ineedtoupdate"
"twitter",0,"126864610446942209","Thu Oct 20 03:37:34 +0000 2011","#Twitter is messed up followers keep switching to same numbers -___- #FIXIT!"
"twitter",0,"126864575508381696","Thu Oct 20 03:37:26 +0000 2011","I need to get off #twitter"
"twitter",0,"126864510194683904","Thu Oct 20 03:37:10 +0000 2011","RT @Prettynesz: #twitter still not showin my mothafuckin #retweets . ."
"twitter",0,"126864059206336513","Thu Oct 20 03:35:23 +0000 2011","#Twitter timeline and mentions up the shit :("
"twitter",0,"126862065649459200","Thu Oct 20 03:27:28 +0000 2011","So much garbage. #Twitter"
"twitter",0,"126861410864087042","Thu Oct 20 03:24:51 +0000 2011","Who the hell uses #twitter on a tv man. #panasonic #epicfail."
"twitter",0,"126861382078578688","Thu Oct 20 03:24:45 +0000 2011","#twitter still not showin my mothafuckin #retweets . ."
"twitter",0,"126861309185761280","Thu Oct 20 03:24:27 +0000 2011","#stupid fucking #Twitter #Twitterapp give me my Damn #mentions NOOWWWWWW!!!!! UGH! #DRAWLIN AS ALWAYS #TMW #PROMOALLDAY #FOLLOWLIMITISGAY TO"
"twitter",0,"126861228797722624","Thu Oct 20 03:24:08 +0000 2011","RT @JolieeSharmeda #twitter be fucking up"
"twitter",0,"126859898897174528","Thu Oct 20 03:18:51 +0000 2011","@KushKitty420 you, #Facebook #twitter and the #tv are all #distractions whenever I wanna study ;("
"twitter",0,"126858607789740032","Thu Oct 20 03:13:43 +0000 2011","RT @nicolebanyots: #twitter UH, SHOW ME MY RETWEETS, OR ILL GO BACK TO FACEBOOK. K? K."
